module github.com/arxdsilva/exampleapi

go 1.12

require (
	github.com/dgrijalva/jwt-go v3.2.0+incompatible // indirect
	github.com/google/uuid v1.1.1
	github.com/labstack/echo v3.3.10+incompatible
	github.com/labstack/gommon v0.3.0 // indirect
	github.com/stretchr/testify v1.4.0
	github.com/valyala/fasttemplate v1.1.0 // indirect
	golang.org/x/crypto v0.0.0-20191227163750-53104e6ec876 // indirect
	gopkg.in/mgo.v2 v2.0.0-20190816093944-a6b53ec6cb22
)
